{
  "dev": {
    "api": "http://localhost:9999",
    "api_key": "Luc0ny96Z0Zd8aJAvzVkJ7BOh75GkPU2",
    "giphy_url": "api.giphy.com/v1/gifs/random"
  },
  "prod": {
    "api": "http://localhost:9999/api",
    "giphy_url": "api.giphy.com/v1/gifs/random"
  }
}